…
The new object, `worldvector`, has a `sf` class. 
It has 185 features (rows or geometries) and 15 fields (columns with attributes). 
There is also an 16th column, `geom`, that stores geometries of each feature.
Objects of class `sf` also display a header containing spatial metadata.
It includes geometry type, dimension (`XY`, `XYZ`, `XYM`, `XYZM`), bounding box (`bbox`), and information about the used Coordinate Reference System (`CRS`).


```r
worldvector
#> Simple feature collection with 185 features and 15 fields
#> Geometry type: MULTIPOLYGON
#> Dimension:     XY
#> Bounding box:  xmin: -16300000 ymin: -8390000 xmax: 16900000 ymax: 8320000
#> Projected CRS: WGS 84 / Equal Earth Greenwich
#> # A tibble: 185 × 16
#>    GEO   name     wb_region  wb_income_region population
#>    <chr> <chr>    <chr>      <chr>                 <dbl>
#>  1 AUS   Austral… East Asia… High income        42900000
#>  2 AZE   Azerbai… Europe & … Upper middle in…    9190000
#>  3 BIH   Bosnia … Europe & … Upper middle in…    1640000
#>  4 BGD   Banglad… South Asia Lower middle in…  151000000
#>  5 BEL   Belgium  Europe & … High income        12500000
#>  6 BFA   Burkina… Sub-Sahar… Low income         83200000
#>  7 BGR   Bulgaria Europe & … Upper middle in…    3590000
#>  8 BDI   Burundi  Sub-Sahar… Low income         50900000
#>  9 BEN   Benin    Sub-Sahar… Low income         47200000
#> 10 BRN   Brunei   East Asia… High income          390000
#> # … with 175 more rows, and 11 more variables:
#> #   CO2_emissions <dbl>, gdp_per_cap <dbl>,
#> #   life_expectancy <dbl>,
#> #   corruption_perception_index <dbl>,
#> #   democracy_score <dbl>, hdi <dbl>,
#> #   energy_use_per_cap <dbl>, literacy_rate <dbl>,
#> #   demo_corr <dbl>, demo_corr_rank <int>, …
```
…
